........
----------------------------------------------------------------------
Ran 8 tests in 0.001s

OK
Name               Stmts   Miss Branch BrPart  Cover   Missing
--------------------------------------------------------------
Diplomacy.py          52      0     44      0   100%
TestDiplomacy.py      40      0      2      0   100%
--------------------------------------------------------------
TOTAL                 92      0     46      0   100%
